a:45:{i:0;a:3:{i:0;s:14:"document_start";i:1;a:0:{}i:2;i:0;}i:1;a:3:{i:0;s:6:"header";i:1;a:3:{i:0;s:17:"Why use Verboice?";i:1;i:1;i:2;i:1;}i:2;i:1;}i:2;a:3:{i:0;s:12:"section_open";i:1;a:1:{i:0;i:1;}i:2;i:1;}i:3;a:3:{i:0;s:6:"p_open";i:1;a:0:{}i:2;i:1;}i:4;a:3:{i:0;s:13:"internalmedia";i:1;a:7:{i:0;s:29:":en:introduction:language.png";i:1;s:0:"";i:2;N;i:3;s:2:"35";i:4;N;i:5;s:5:"cache";i:6;s:7:"details";}i:2;i:34;}i:5;a:3:{i:0;s:5:"cdata";i:1;a:1:{i:0;s:53:"Overcome literacy barriers with verbal communication.";}i:2;i:71;}i:6;a:3:{i:0;s:9:"linebreak";i:1;a:0:{}i:2;i:124;}i:7;a:3:{i:0;s:9:"linebreak";i:1;a:0:{}i:2;i:127;}i:8;a:3:{i:0;s:5:"cdata";i:1;a:1:{i:0;s:1:"
";}i:2;i:129;}i:9;a:3:{i:0;s:13:"internalmedia";i:1;a:7:{i:0;s:26:":en:introduction:sound.png";i:1;s:0:"";i:2;N;i:3;s:2:"35";i:4;N;i:5;s:5:"cache";i:6;s:7:"details";}i:2;i:130;}i:10;a:3:{i:0;s:5:"cdata";i:1;a:1:{i:0;s:43:"Create voice-based programs without coding.";}i:2;i:164;}i:11;a:3:{i:0;s:9:"linebreak";i:1;a:0:{}i:2;i:207;}i:12;a:3:{i:0;s:9:"linebreak";i:1;a:0:{}i:2;i:210;}i:13;a:3:{i:0;s:5:"cdata";i:1;a:1:{i:0;s:1:"
";}i:2;i:212;}i:14;a:3:{i:0;s:13:"internalmedia";i:1;a:7:{i:0;s:26:":en:introduction:scale.png";i:1;s:0:"";i:2;N;i:3;s:2:"35";i:4;N;i:5;s:5:"cache";i:6;s:7:"details";}i:2;i:213;}i:15;a:3:{i:0;s:5:"cdata";i:1;a:1:{i:0;s:26:"Scales to suit your needs.";}i:2;i:247;}i:16;a:3:{i:0;s:9:"linebreak";i:1;a:0:{}i:2;i:273;}i:17;a:3:{i:0;s:9:"linebreak";i:1;a:0:{}i:2;i:276;}i:18;a:3:{i:0;s:5:"cdata";i:1;a:1:{i:0;s:1:"
";}i:2;i:278;}i:19;a:3:{i:0;s:13:"internalmedia";i:1;a:7:{i:0;s:29:":en:introduction:computer.png";i:1;s:0:"";i:2;N;i:3;s:2:"35";i:4;N;i:5;s:5:"cache";i:6;s:7:"details";}i:2;i:279;}i:20;a:3:{i:0;s:5:"cdata";i:1;a:1:{i:0;s:58:"Generate projects using any computer with Internet access.";}i:2;i:316;}i:21;a:3:{i:0;s:9:"linebreak";i:1;a:0:{}i:2;i:374;}i:22;a:3:{i:0;s:9:"linebreak";i:1;a:0:{}i:2;i:377;}i:23;a:3:{i:0;s:5:"cdata";i:1;a:1:{i:0;s:1:"
";}i:2;i:379;}i:24;a:3:{i:0;s:13:"internalmedia";i:1;a:7:{i:0;s:26:":en:introduction:users.png";i:1;s:0:"";i:2;N;i:3;s:2:"35";i:4;N;i:5;s:5:"cache";i:6;s:7:"details";}i:2;i:380;}i:25;a:3:{i:0;s:5:"cdata";i:1;a:1:{i:0;s:68:"Reach out to any community, anywhere there's access to basic phones.";}i:2;i:414;}i:26;a:3:{i:0;s:9:"linebreak";i:1;a:0:{}i:2;i:482;}i:27;a:3:{i:0;s:9:"linebreak";i:1;a:0:{}i:2;i:485;}i:28;a:3:{i:0;s:5:"cdata";i:1;a:1:{i:0;s:1:"
";}i:2;i:487;}i:29;a:3:{i:0;s:13:"internalmedia";i:1;a:7:{i:0;s:26:":en:introduction:shred.png";i:1;s:0:"";i:2;N;i:3;s:2:"35";i:4;N;i:5;s:5:"cache";i:6;s:7:"details";}i:2;i:488;}i:30;a:3:{i:0;s:7:"acronym";i:1;a:1:{i:0;s:3:"API";}i:2;i:522;}i:31;a:3:{i:0;s:5:"cdata";i:1;a:1:{i:0;s:20:" based on standards.";}i:2;i:525;}i:32;a:3:{i:0;s:9:"linebreak";i:1;a:0:{}i:2;i:545;}i:33;a:3:{i:0;s:9:"linebreak";i:1;a:0:{}i:2;i:548;}i:34;a:3:{i:0;s:5:"cdata";i:1;a:1:{i:0;s:1:"
";}i:2;i:550;}i:35;a:3:{i:0;s:13:"internalmedia";i:1;a:7:{i:0;s:25:":en:introduction:free.png";i:1;s:0:"";i:2;N;i:3;s:2:"35";i:4;N;i:5;s:5:"cache";i:6;s:7:"details";}i:2;i:551;}i:36;a:3:{i:0;s:5:"cdata";i:1;a:1:{i:0;s:60:"Free for anyone to use to help increase their social impact.";}i:2;i:584;}i:37;a:3:{i:0;s:9:"linebreak";i:1;a:0:{}i:2;i:644;}i:38;a:3:{i:0;s:9:"linebreak";i:1;a:0:{}i:2;i:647;}i:39;a:3:{i:0;s:5:"cdata";i:1;a:1:{i:0;s:1:"
";}i:2;i:649;}i:40;a:3:{i:0;s:13:"internalmedia";i:1;a:7:{i:0;s:31:":en:introduction:opensource.png";i:1;s:0:"";i:2;N;i:3;s:2:"35";i:4;N;i:5;s:5:"cache";i:6;s:7:"details";}i:2;i:650;}i:41;a:3:{i:0;s:5:"cdata";i:1;a:1:{i:0;s:79:"Open Source code for developers to use to improve its design and functionality.";}i:2;i:689;}i:42;a:3:{i:0;s:7:"p_close";i:1;a:0:{}i:2;i:768;}i:43;a:3:{i:0;s:13:"section_close";i:1;a:0:{}i:2;i:769;}i:44;a:3:{i:0;s:12:"document_end";i:1;a:0:{}i:2;i:769;}}