a:21:{i:0;a:3:{i:0;s:14:"document_start";i:1;a:0:{}i:2;i:0;}i:1;a:3:{i:0;s:6:"header";i:1;a:3:{i:0;s:51:"STEP 2: Configure Callcentric with Verboice Channel";i:1;i:1;i:2;i:1;}i:2;i:1;}i:2;a:3:{i:0;s:12:"section_open";i:1;a:1:{i:0;i:1;}i:2;i:1;}i:3;a:3:{i:0;s:6:"p_open";i:1;a:0:{}i:2;i:1;}i:4;a:3:{i:0;s:5:"cdata";i:1;a:1:{i:0;s:52:"To create Verboice Callcentric channel please click ";}i:2;i:67;}i:5;a:3:{i:0;s:12:"internallink";i:1;a:2:{i:0;s:37:"en:vbchannel:createcallcentricchannel";i:1;s:4:"here";}i:2;i:119;}i:6;a:3:{i:0;s:5:"cdata";i:1;a:1:{i:0;s:122:" and make sure that the username and password is SIP username and SIP password of Callcentric as in the screenshot bellow:";}i:2;i:165;}i:7;a:3:{i:0;s:9:"linebreak";i:1;a:0:{}i:2;i:287;}i:8;a:3:{i:0;s:9:"linebreak";i:1;a:0:{}i:2;i:290;}i:9;a:3:{i:0;s:5:"cdata";i:1;a:1:{i:0;s:1:"
";}i:2;i:293;}i:10;a:3:{i:0;s:13:"internalmedia";i:1;a:7:{i:0;s:76:":en:vbchannel:vb-configure-callcentric-with-verboice-callcentric-channel.png";i:1;s:0:"";i:2;s:6:"center";i:3;N;i:4;N;i:5;s:5:"cache";i:6;s:6:"nolink";}i:2;i:294;}i:11;a:3:{i:0;s:5:"cdata";i:1;a:1:{i:0;s:1:" ";}i:2;i:384;}i:12;a:3:{i:0;s:9:"linebreak";i:1;a:0:{}i:2;i:385;}i:13;a:3:{i:0;s:5:"cdata";i:1;a:1:{i:0;s:1:"
";}i:2;i:387;}i:14;a:3:{i:0;s:9:"linebreak";i:1;a:0:{}i:2;i:388;}i:15;a:3:{i:0;s:5:"cdata";i:1;a:1:{i:0;s:77:"
Now the channel is successfully completed configure with Callcentric. Go to ";}i:2;i:391;}i:16;a:3:{i:0;s:12:"internallink";i:1;a:2:{i:0;s:22:"en:vbmakecall:makecall";i:1;s:55:"STEP 3 to learn how to setup soft phone by using X-Lite";}i:2;i:468;}i:17;a:3:{i:0;s:5:"cdata";i:1;a:1:{i:0;s:33:" to test call from your computer.";}i:2;i:550;}i:18;a:3:{i:0;s:7:"p_close";i:1;a:0:{}i:2;i:583;}i:19;a:3:{i:0;s:13:"section_close";i:1;a:0:{}i:2;i:583;}i:20;a:3:{i:0;s:12:"document_end";i:1;a:0:{}i:2;i:583;}}