a:32:{i:0;a:3:{i:0;s:14:"document_start";i:1;a:0:{}i:2;i:0;}i:1;a:3:{i:0;s:6:"header";i:1;a:3:{i:0;s:39:"STEP 5: Calling from X-Lite to Verboice";i:1;i:1;i:2;i:1;}i:2;i:1;}i:2;a:3:{i:0;s:12:"section_open";i:1;a:1:{i:0;i:1;}i:2;i:1;}i:3;a:3:{i:0;s:6:"p_open";i:1;a:0:{}i:2;i:1;}i:4;a:3:{i:0;s:5:"cdata";i:1;a:1:{i:0;s:63:"Now we're ready to call to Verboice by using X-Lite softphone. ";}i:2;i:55;}i:5;a:3:{i:0;s:9:"linebreak";i:1;a:0:{}i:2;i:118;}i:6;a:3:{i:0;s:5:"cdata";i:1;a:1:{i:0;s:32:"
What number we should call to? ";}i:2;i:120;}i:7;a:3:{i:0;s:9:"linebreak";i:1;a:0:{}i:2;i:152;}i:8;a:3:{i:0;s:5:"cdata";i:1;a:1:{i:0;s:123:"
According to our configuration between Callcentric and Verboice in this instruction, the number that we should call to is ";}i:2;i:154;}i:9;a:3:{i:0;s:11:"strong_open";i:1;a:0:{}i:2;i:277;}i:10;a:3:{i:0;s:5:"cdata";i:1;a:1:{i:0;s:11:"17772236350";}i:2;i:279;}i:11;a:3:{i:0;s:12:"strong_close";i:1;a:0:{}i:2;i:290;}i:12;a:3:{i:0;s:5:"cdata";i:1;a:1:{i:0;s:20:". It's SIP Username.";}i:2;i:292;}i:13;a:3:{i:0;s:9:"linebreak";i:1;a:0:{}i:2;i:312;}i:14;a:3:{i:0;s:5:"cdata";i:1;a:1:{i:0;s:81:"
This number will be different depend on your Callcentric account (SIP Username).";}i:2;i:314;}i:15;a:3:{i:0;s:9:"linebreak";i:1;a:0:{}i:2;i:395;}i:16;a:3:{i:0;s:5:"cdata";i:1;a:1:{i:0;s:126:"
Start X-Lite softphone application then type the SIP username that we used when create Callcentric Channel then press button ";}i:2;i:397;}i:17;a:3:{i:0;s:11:"strong_open";i:1;a:0:{}i:2;i:523;}i:18;a:3:{i:0;s:5:"cdata";i:1;a:1:{i:0;s:4:"Call";}i:2;i:525;}i:19;a:3:{i:0;s:12:"strong_close";i:1;a:0:{}i:2;i:529;}i:20;a:3:{i:0;s:5:"cdata";i:1;a:1:{i:0;s:1:".";}i:2;i:531;}i:21;a:3:{i:0;s:9:"linebreak";i:1;a:0:{}i:2;i:532;}i:22;a:3:{i:0;s:13:"internalmedia";i:1;a:7:{i:0;s:33:":en:vbmakecall:vb-x-lite-call.png";i:1;s:0:"";i:2;s:6:"center";i:3;N;i:4;N;i:5;s:5:"cache";i:6;s:6:"nolink";}i:2;i:535;}i:23;a:3:{i:0;s:9:"linebreak";i:1;a:0:{}i:2;i:582;}i:24;a:3:{i:0;s:9:"linebreak";i:1;a:0:{}i:2;i:585;}i:25;a:3:{i:0;s:5:"cdata";i:1;a:1:{i:0;s:82:"
Now you can hear the voice base on the call flow selected when creating channel. ";}i:2;i:588;}i:26;a:3:{i:0;s:9:"linebreak";i:1;a:0:{}i:2;i:670;}i:27;a:3:{i:0;s:13:"internalmedia";i:1;a:7:{i:0;s:39:":en:vbmakecall:vb-x-lite-in-calling.png";i:1;s:0:"";i:2;s:6:"center";i:3;N;i:4;N;i:5;s:5:"cache";i:6;s:6:"nolink";}i:2;i:673;}i:28;a:3:{i:0;s:5:"cdata";i:1;a:1:{i:0;s:0:"";}i:2;i:726;}i:29;a:3:{i:0;s:7:"p_close";i:1;a:0:{}i:2;i:726;}i:30;a:3:{i:0;s:13:"section_close";i:1;a:0:{}i:2;i:726;}i:31;a:3:{i:0;s:12:"document_end";i:1;a:0:{}i:2;i:726;}}