a:104:{i:0;a:3:{i:0;s:14:"document_start";i:1;a:0:{}i:2;i:0;}i:1;a:3:{i:0;s:6:"header";i:1;a:3:{i:0;s:33:"Configure X-Lite with Callcentric";i:1;i:1;i:2;i:1;}i:2;i:1;}i:2;a:3:{i:0;s:12:"section_open";i:1;a:1:{i:0;i:1;}i:2;i:1;}i:3;a:3:{i:0;s:6:"p_open";i:1;a:0:{}i:2;i:1;}i:4;a:3:{i:0;s:5:"cdata";i:1;a:1:{i:0;s:38:"To configure X-Lite with Callcentric, ";}i:2;i:50;}i:5;a:3:{i:0;s:11:"strong_open";i:1;a:0:{}i:2;i:88;}i:6;a:3:{i:0;s:5:"cdata";i:1;a:1:{i:0;s:102:"you cannot use the same SIP username of Callcentric that you have used in creating Callcentric Channel";}i:2;i:90;}i:7;a:3:{i:0;s:12:"strong_close";i:1;a:0:{}i:2;i:192;}i:8;a:3:{i:0;s:5:"cdata";i:1;a:1:{i:0;s:93:". You have to create new SIP username by add new extension or create new Callcentric account.";}i:2;i:194;}i:9;a:3:{i:0;s:9:"linebreak";i:1;a:0:{}i:2;i:287;}i:10;a:3:{i:0;s:9:"linebreak";i:1;a:0:{}i:2;i:290;}i:11;a:3:{i:0;s:5:"cdata";i:1;a:1:{i:0;s:148:"
Run the application then you will see the application pop up. Next step you need to do is to configure for the softphone to connect to Callcentric.";}i:2;i:293;}i:12;a:3:{i:0;s:9:"linebreak";i:1;a:0:{}i:2;i:441;}i:13;a:3:{i:0;s:5:"cdata";i:1;a:1:{i:0;s:1:"
";}i:2;i:444;}i:14;a:3:{i:0;s:13:"internalmedia";i:1;a:7:{i:0;s:26:":en:vbmakecall:x_lite7.png";i:1;s:0:"";i:2;s:6:"center";i:3;N;i:4;N;i:5;s:5:"cache";i:6;s:6:"nolink";}i:2;i:445;}i:15;a:3:{i:0;s:9:"linebreak";i:1;a:0:{}i:2;i:485;}i:16;a:3:{i:0;s:7:"p_close";i:1;a:0:{}i:2;i:487;}i:17;a:3:{i:0;s:6:"p_open";i:1;a:0:{}i:2;i:487;}i:18;a:3:{i:0;s:5:"cdata";i:1;a:1:{i:0;s:75:"To start make a configuration click on Softphone and then Account Settings.";}i:2;i:489;}i:19;a:3:{i:0;s:9:"linebreak";i:1;a:0:{}i:2;i:564;}i:20;a:3:{i:0;s:5:"cdata";i:1;a:1:{i:0;s:1:"
";}i:2;i:567;}i:21;a:3:{i:0;s:13:"internalmedia";i:1;a:7:{i:0;s:26:":en:vbmakecall:x_lite8.png";i:1;s:0:"";i:2;s:6:"center";i:3;N;i:4;N;i:5;s:5:"cache";i:6;s:6:"nolink";}i:2;i:568;}i:22;a:3:{i:0;s:9:"linebreak";i:1;a:0:{}i:2;i:608;}i:23;a:3:{i:0;s:7:"p_close";i:1;a:0:{}i:2;i:611;}i:24;a:3:{i:0;s:6:"p_open";i:1;a:0:{}i:2;i:611;}i:25;a:3:{i:0;s:5:"cdata";i:1;a:1:{i:0;s:130:"Then you will see the configuration windows pop up then you have to input some information as below to configure with Callcentric:";}i:2;i:613;}i:26;a:3:{i:0;s:7:"p_close";i:1;a:0:{}i:2;i:743;}i:27;a:3:{i:0;s:10:"listu_open";i:1;a:0:{}i:2;i:743;}i:28;a:3:{i:0;s:13:"listitem_open";i:1;a:1:{i:0;i:1;}i:2;i:743;}i:29;a:3:{i:0;s:16:"listcontent_open";i:1;a:0:{}i:2;i:743;}i:30;a:3:{i:0;s:5:"cdata";i:1;a:1:{i:0;s:1:" ";}i:2;i:749;}i:31;a:3:{i:0;s:11:"strong_open";i:1;a:0:{}i:2;i:750;}i:32;a:3:{i:0;s:5:"cdata";i:1;a:1:{i:0;s:7:"User ID";}i:2;i:752;}i:33;a:3:{i:0;s:12:"strong_close";i:1;a:0:{}i:2;i:759;}i:34;a:3:{i:0;s:5:"cdata";i:1;a:1:{i:0;s:97:" is the SIP username of Callcentric. Callcentric will provide you after successfully registering.";}i:2;i:761;}i:35;a:3:{i:0;s:17:"listcontent_close";i:1;a:0:{}i:2;i:858;}i:36;a:3:{i:0;s:14:"listitem_close";i:1;a:0:{}i:2;i:858;}i:37;a:3:{i:0;s:13:"listitem_open";i:1;a:1:{i:0;i:2;}i:2;i:858;}i:38;a:3:{i:0;s:16:"listcontent_open";i:1;a:0:{}i:2;i:858;}i:39;a:3:{i:0;s:5:"cdata";i:1;a:1:{i:0;s:1:" ";}i:2;i:864;}i:40;a:3:{i:0;s:11:"strong_open";i:1;a:0:{}i:2;i:865;}i:41;a:3:{i:0;s:5:"cdata";i:1;a:1:{i:0;s:6:"Domain";}i:2;i:867;}i:42;a:3:{i:0;s:12:"strong_close";i:1;a:0:{}i:2;i:873;}i:43;a:3:{i:0;s:5:"cdata";i:1;a:1:{i:0;s:20:" is the Callcentric ";}i:2;i:875;}i:44;a:3:{i:0;s:7:"acronym";i:1;a:1:{i:0;s:3:"URL";}i:2;i:895;}i:45;a:3:{i:0;s:5:"cdata";i:1;a:1:{i:0;s:18:" : callcentric.com";}i:2;i:898;}i:46;a:3:{i:0;s:17:"listcontent_close";i:1;a:0:{}i:2;i:916;}i:47;a:3:{i:0;s:14:"listitem_close";i:1;a:0:{}i:2;i:916;}i:48;a:3:{i:0;s:13:"listitem_open";i:1;a:1:{i:0;i:2;}i:2;i:916;}i:49;a:3:{i:0;s:16:"listcontent_open";i:1;a:0:{}i:2;i:916;}i:50;a:3:{i:0;s:5:"cdata";i:1;a:1:{i:0;s:1:" ";}i:2;i:922;}i:51;a:3:{i:0;s:11:"strong_open";i:1;a:0:{}i:2;i:923;}i:52;a:3:{i:0;s:5:"cdata";i:1;a:1:{i:0;s:8:"Password";}i:2;i:925;}i:53;a:3:{i:0;s:12:"strong_close";i:1;a:0:{}i:2;i:933;}i:54;a:3:{i:0;s:5:"cdata";i:1;a:1:{i:0;s:63:" is the password of SIP password of SIP username of Callcentric";}i:2;i:935;}i:55;a:3:{i:0;s:17:"listcontent_close";i:1;a:0:{}i:2;i:998;}i:56;a:3:{i:0;s:14:"listitem_close";i:1;a:0:{}i:2;i:998;}i:57;a:3:{i:0;s:13:"listitem_open";i:1;a:1:{i:0;i:2;}i:2;i:998;}i:58;a:3:{i:0;s:16:"listcontent_open";i:1;a:0:{}i:2;i:998;}i:59;a:3:{i:0;s:5:"cdata";i:1;a:1:{i:0;s:1:" ";}i:2;i:1004;}i:60;a:3:{i:0;s:11:"strong_open";i:1;a:0:{}i:2;i:1005;}i:61;a:3:{i:0;s:5:"cdata";i:1;a:1:{i:0;s:12:"Display name";}i:2;i:1007;}i:62;a:3:{i:0;s:12:"strong_close";i:1;a:0:{}i:2;i:1019;}i:63;a:3:{i:0;s:5:"cdata";i:1;a:1:{i:0;s:46:" is the name to display of configured account ";}i:2;i:1021;}i:64;a:3:{i:0;s:17:"listcontent_close";i:1;a:0:{}i:2;i:1067;}i:65;a:3:{i:0;s:14:"listitem_close";i:1;a:0:{}i:2;i:1067;}i:66;a:3:{i:0;s:13:"listitem_open";i:1;a:1:{i:0;i:2;}i:2;i:1067;}i:67;a:3:{i:0;s:16:"listcontent_open";i:1;a:0:{}i:2;i:1067;}i:68;a:3:{i:0;s:5:"cdata";i:1;a:1:{i:0;s:1:" ";}i:2;i:1073;}i:69;a:3:{i:0;s:11:"strong_open";i:1;a:0:{}i:2;i:1074;}i:70;a:3:{i:0;s:5:"cdata";i:1;a:1:{i:0;s:18:"Authorization name";}i:2;i:1076;}i:71;a:3:{i:0;s:12:"strong_close";i:1;a:0:{}i:2;i:1094;}i:72;a:3:{i:0;s:5:"cdata";i:1;a:1:{i:0;s:37:" is the SIP username of Callcentric. ";}i:2;i:1096;}i:73;a:3:{i:0;s:9:"linebreak";i:1;a:0:{}i:2;i:1133;}i:74;a:3:{i:0;s:6:"plugin";i:1;a:4:{i:0;s:8:"imagebox";i:1;a:2:{i:0;i:1;i:1;a:10:{s:4:"type";s:13:"internalmedia";s:3:"src";s:50:":en:vbmakecall:vb-x-lite-account-configuration.png";s:5:"title";s:0:"";s:5:"align";s:6:"center";s:5:"width";N;s:6:"height";N;s:5:"cache";s:5:"cache";s:7:"linking";s:6:"nolink";s:1:"w";i:389;s:5:"exist";b:1;}}i:2;i:1;i:3;s:63:"[{{ :en:vbmakecall:vb-x-lite-account-configuration.png?nolink |";}i:2;i:1136;}i:75;a:3:{i:0;s:6:"plugin";i:1;a:4:{i:0;s:8:"imagebox";i:1;a:2:{i:0;i:3;i:1;s:58:"This screenshot show that the SIP username is 17772667637.";}i:2;i:3;i:3;s:58:"This screenshot show that the SIP username is 17772667637.";}i:2;i:1199;}i:76;a:3:{i:0;s:6:"plugin";i:1;a:4:{i:0;s:8:"imagebox";i:1;a:2:{i:0;i:4;i:1;s:3:"}}]";}i:2;i:4;i:3;s:3:"}}]";}i:2;i:1257;}i:77;a:3:{i:0;s:17:"listcontent_close";i:1;a:0:{}i:2;i:1260;}i:78;a:3:{i:0;s:14:"listitem_close";i:1;a:0:{}i:2;i:1260;}i:79;a:3:{i:0;s:11:"listu_close";i:1;a:0:{}i:2;i:1260;}i:80;a:3:{i:0;s:6:"p_open";i:1;a:0:{}i:2;i:1260;}i:81;a:3:{i:0;s:5:"cdata";i:1;a:1:{i:0;s:137:"After you complete all the information, click OK to save the configuration.
If your configuration failed, you will see the message below.";}i:2;i:1261;}i:82;a:3:{i:0;s:9:"linebreak";i:1;a:0:{}i:2;i:1398;}i:83;a:3:{i:0;s:5:"cdata";i:1;a:1:{i:0;s:1:"
";}i:2;i:1401;}i:84;a:3:{i:0;s:13:"internalmedia";i:1;a:7:{i:0;s:27:":en:vbmakecall:x_lite10.png";i:1;s:0:"";i:2;s:6:"center";i:3;N;i:4;N;i:5;s:5:"cache";i:6;s:6:"nolink";}i:2;i:1402;}i:85;a:3:{i:0;s:9:"linebreak";i:1;a:0:{}i:2;i:1443;}i:86;a:3:{i:0;s:7:"p_close";i:1;a:0:{}i:2;i:1446;}i:87;a:3:{i:0;s:6:"p_open";i:1;a:0:{}i:2;i:1446;}i:88;a:3:{i:0;s:5:"cdata";i:1;a:1:{i:0;s:76:"If your configuration is correct, you will not get any error failed message.";}i:2;i:1448;}i:89;a:3:{i:0;s:9:"linebreak";i:1;a:0:{}i:2;i:1524;}i:90;a:3:{i:0;s:7:"p_close";i:1;a:0:{}i:2;i:1527;}i:91;a:3:{i:0;s:6:"p_open";i:1;a:0:{}i:2;i:1527;}i:92;a:3:{i:0;s:13:"internalmedia";i:1;a:7:{i:0;s:27:":en:vbmakecall:x_lite11.png";i:1;s:0:"";i:2;s:6:"center";i:3;N;i:4;N;i:5;s:5:"cache";i:6;s:6:"nolink";}i:2;i:1529;}i:93;a:3:{i:0;s:9:"linebreak";i:1;a:0:{}i:2;i:1570;}i:94;a:3:{i:0;s:7:"p_close";i:1;a:0:{}i:2;i:1573;}i:95;a:3:{i:0;s:6:"p_open";i:1;a:0:{}i:2;i:1573;}i:96;a:3:{i:0;s:5:"cdata";i:1;a:1:{i:0;s:50:"Now you are ready to call to the Verboice system. ";}i:2;i:1575;}i:97;a:3:{i:0;s:9:"linebreak";i:1;a:0:{}i:2;i:1625;}i:98;a:3:{i:0;s:5:"cdata";i:1;a:1:{i:0;s:7:"
Go to ";}i:2;i:1627;}i:99;a:3:{i:0;s:12:"internallink";i:1;a:2:{i:0;s:45:"en:vbmakecall:calling_from_x-lite_to_verboice";i:1;s:40:"STEP 5 to learn how to call to Verboice.";}i:2;i:1634;}i:100;a:3:{i:0;s:5:"cdata";i:1;a:1:{i:0;s:0:"";}i:2;i:1724;}i:101;a:3:{i:0;s:7:"p_close";i:1;a:0:{}i:2;i:1724;}i:102;a:3:{i:0;s:13:"section_close";i:1;a:0:{}i:2;i:1724;}i:103;a:3:{i:0;s:12:"document_end";i:1;a:0:{}i:2;i:1724;}}