a:5:{i:0;a:3:{i:0;s:14:"document_start";i:1;a:0:{}i:2;i:0;}i:1;a:3:{i:0;s:6:"p_open";i:1;a:0:{}i:2;i:0;}i:2;a:3:{i:0;s:5:"cdata";i:1;a:1:{i:0;s:333:"Make better 
decisions
by knowing where your resources 
are in real time
Resource Map helps you record, track and analyze 
your resources geographically in a collaborative 
environment accessible from anywhere. This tool 
overlays information about resources onto a map so 
you can see, at a glance, who has what and where 
they are.";}i:2;i:2;}i:3;a:3:{i:0;s:7:"p_close";i:1;a:0:{}i:2;i:2;}i:4;a:3:{i:0;s:12:"document_end";i:1;a:0:{}i:2;i:2;}}