a:84:{i:0;a:3:{i:0;s:14:"document_start";i:1;a:0:{}i:2;i:0;}i:1;a:3:{i:0;s:6:"header";i:1;a:3:{i:0;s:31:"Setup Softphone by using X-Lite";i:1;i:1;i:2;i:1;}i:2;i:1;}i:2;a:3:{i:0;s:12:"section_open";i:1;a:1:{i:0;i:1;}i:2;i:1;}i:3;a:3:{i:0;s:6:"p_open";i:1;a:0:{}i:2;i:1;}i:4;a:3:{i:0;s:5:"cdata";i:1;a:1:{i:0;s:283:"There are different ways to make calls to Verboice depending on the type of channel you have. For example, Cellcentric and Skype will give you an international phone number to receive calls from your mobile phone, but with SIP channel and custom channel you will need to call from a ";}i:2;i:47;}i:5;a:3:{i:0;s:12:"externallink";i:1;a:2:{i:0;s:38:"http://en.wikipedia.org/wiki/Softphone";i:1;s:9:"softphone";}i:2;i:330;}i:6;a:3:{i:0;s:5:"cdata";i:1;a:1:{i:0;s:1:".";}i:2;i:382;}i:7;a:3:{i:0;s:7:"p_close";i:1;a:0:{}i:2;i:383;}i:8;a:3:{i:0;s:6:"p_open";i:1;a:0:{}i:2;i:383;}i:9;a:3:{i:0;s:5:"cdata";i:1;a:1:{i:0;s:115:"You will need to install any softphone program of your preference into your computer. I would recommend you to try ";}i:2;i:385;}i:10;a:3:{i:0;s:12:"externallink";i:1;a:2:{i:0;s:38:"http://www.counterpath.com/x-lite.html";i:1;s:15:"XLite softphone";}i:2;i:500;}i:11;a:3:{i:0;s:5:"cdata";i:1;a:1:{i:0;s:65:" software for a testing purpose. To get the file download please ";}i:2;i:558;}i:12;a:3:{i:0;s:12:"externallink";i:1;a:2:{i:0;s:74:"http://counterpath.s3.amazonaws.com/downloads/X-Lite_Win32_5.0.0_67284.exe";i:1;s:10:"click here";}i:2;i:623;}i:13;a:3:{i:0;s:5:"cdata";i:1;a:1:{i:0;s:123:" and you will wait a few minutes for the downloading.  After download completed, you can install it with some steps below: ";}i:2;i:712;}i:14;a:3:{i:0;s:9:"linebreak";i:1;a:0:{}i:2;i:835;}i:15;a:3:{i:0;s:7:"p_close";i:1;a:0:{}i:2;i:838;}i:16;a:3:{i:0;s:6:"p_open";i:1;a:0:{}i:2;i:838;}i:17;a:3:{i:0;s:13:"internalmedia";i:1;a:7:{i:0;s:26:":en:vbmakecall:x_lite1.png";i:1;N;i:2;N;i:3;N;i:4;N;i:5;s:5:"cache";i:6;s:6:"nolink";}i:2;i:840;}i:18;a:3:{i:0;s:9:"linebreak";i:1;a:0:{}i:2;i:877;}i:19;a:3:{i:0;s:5:"cdata";i:1;a:1:{i:0;s:7:"
Click ";}i:2;i:880;}i:20;a:3:{i:0;s:11:"strong_open";i:1;a:0:{}i:2;i:887;}i:21;a:3:{i:0;s:5:"cdata";i:1;a:1:{i:0;s:4:"Next";}i:2;i:889;}i:22;a:3:{i:0;s:12:"strong_close";i:1;a:0:{}i:2;i:893;}i:23;a:3:{i:0;s:9:"linebreak";i:1;a:0:{}i:2;i:895;}i:24;a:3:{i:0;s:7:"p_close";i:1;a:0:{}i:2;i:898;}i:25;a:3:{i:0;s:6:"p_open";i:1;a:0:{}i:2;i:898;}i:26;a:3:{i:0;s:13:"internalmedia";i:1;a:7:{i:0;s:26:":en:vbmakecall:x_lite2.png";i:1;N;i:2;N;i:3;N;i:4;N;i:5;s:5:"cache";i:6;s:6:"nolink";}i:2;i:900;}i:27;a:3:{i:0;s:9:"linebreak";i:1;a:0:{}i:2;i:937;}i:28;a:3:{i:0;s:5:"cdata";i:1;a:1:{i:0;s:14:"
Click on the ";}i:2;i:940;}i:29;a:3:{i:0;s:11:"strong_open";i:1;a:0:{}i:2;i:954;}i:30;a:3:{i:0;s:5:"cdata";i:1;a:1:{i:0;s:8:"checkbox";}i:2;i:956;}i:31;a:3:{i:0;s:12:"strong_close";i:1;a:0:{}i:2;i:964;}i:32;a:3:{i:0;s:5:"cdata";i:1;a:1:{i:0;s:35:" to accept the terms and click the ";}i:2;i:966;}i:33;a:3:{i:0;s:11:"strong_open";i:1;a:0:{}i:2;i:1001;}i:34;a:3:{i:0;s:5:"cdata";i:1;a:1:{i:0;s:4:"Next";}i:2;i:1003;}i:35;a:3:{i:0;s:12:"strong_close";i:1;a:0:{}i:2;i:1007;}i:36;a:3:{i:0;s:5:"cdata";i:1;a:1:{i:0;s:8:" button.";}i:2;i:1009;}i:37;a:3:{i:0;s:9:"linebreak";i:1;a:0:{}i:2;i:1017;}i:38;a:3:{i:0;s:7:"p_close";i:1;a:0:{}i:2;i:1020;}i:39;a:3:{i:0;s:6:"p_open";i:1;a:0:{}i:2;i:1020;}i:40;a:3:{i:0;s:13:"internalmedia";i:1;a:7:{i:0;s:26:":en:vbmakecall:x_lite3.png";i:1;N;i:2;N;i:3;N;i:4;N;i:5;s:5:"cache";i:6;s:6:"nolink";}i:2;i:1022;}i:41;a:3:{i:0;s:9:"linebreak";i:1;a:0:{}i:2;i:1059;}i:42;a:3:{i:0;s:5:"cdata";i:1;a:1:{i:0;s:80:"
This is the step tell you where you want to install your Xlite software. Click ";}i:2;i:1062;}i:43;a:3:{i:0;s:11:"strong_open";i:1;a:0:{}i:2;i:1142;}i:44;a:3:{i:0;s:5:"cdata";i:1;a:1:{i:0;s:4:"Next";}i:2;i:1144;}i:45;a:3:{i:0;s:12:"strong_close";i:1;a:0:{}i:2;i:1148;}i:46;a:3:{i:0;s:5:"cdata";i:1;a:1:{i:0;s:18:" to the next step.";}i:2;i:1150;}i:47;a:3:{i:0;s:9:"linebreak";i:1;a:0:{}i:2;i:1168;}i:48;a:3:{i:0;s:7:"p_close";i:1;a:0:{}i:2;i:1171;}i:49;a:3:{i:0;s:6:"p_open";i:1;a:0:{}i:2;i:1171;}i:50;a:3:{i:0;s:13:"internalmedia";i:1;a:7:{i:0;s:26:":en:vbmakecall:x_lite4.png";i:1;s:0:"";i:2;N;i:3;N;i:4;N;i:5;s:5:"cache";i:6;s:6:"nolink";}i:2;i:1173;}i:51;a:3:{i:0;s:9:"linebreak";i:1;a:0:{}i:2;i:1211;}i:52;a:3:{i:0;s:5:"cdata";i:1;a:1:{i:0;s:10:"
Click on ";}i:2;i:1214;}i:53;a:3:{i:0;s:11:"strong_open";i:1;a:0:{}i:2;i:1224;}i:54;a:3:{i:0;s:5:"cdata";i:1;a:1:{i:0;s:7:"Install";}i:2;i:1226;}i:55;a:3:{i:0;s:12:"strong_close";i:1;a:0:{}i:2;i:1233;}i:56;a:3:{i:0;s:5:"cdata";i:1;a:1:{i:0;s:28:" to start make installation.";}i:2;i:1235;}i:57;a:3:{i:0;s:9:"linebreak";i:1;a:0:{}i:2;i:1263;}i:58;a:3:{i:0;s:7:"p_close";i:1;a:0:{}i:2;i:1266;}i:59;a:3:{i:0;s:6:"p_open";i:1;a:0:{}i:2;i:1266;}i:60;a:3:{i:0;s:13:"internalmedia";i:1;a:7:{i:0;s:26:":en:vbmakecall:x_lite5.png";i:1;s:0:"";i:2;N;i:3;N;i:4;N;i:5;s:5:"cache";i:6;s:6:"nolink";}i:2;i:1268;}i:61;a:3:{i:0;s:9:"linebreak";i:1;a:0:{}i:2;i:1306;}i:62;a:3:{i:0;s:7:"p_close";i:1;a:0:{}i:2;i:1309;}i:63;a:3:{i:0;s:6:"p_open";i:1;a:0:{}i:2;i:1309;}i:64;a:3:{i:0;s:5:"cdata";i:1;a:1:{i:0;s:56:"Wait until it finished and you will see the image below.";}i:2;i:1311;}i:65;a:3:{i:0;s:9:"linebreak";i:1;a:0:{}i:2;i:1367;}i:66;a:3:{i:0;s:5:"cdata";i:1;a:1:{i:0;s:1:"
";}i:2;i:1369;}i:67;a:3:{i:0;s:13:"internalmedia";i:1;a:7:{i:0;s:26:":en:vbmakecall:x_lite6.png";i:1;s:0:"";i:2;N;i:3;N;i:4;N;i:5;s:5:"cache";i:6;s:6:"nolink";}i:2;i:1370;}i:68;a:3:{i:0;s:9:"linebreak";i:1;a:0:{}i:2;i:1408;}i:69;a:3:{i:0;s:5:"cdata";i:1;a:1:{i:0;s:7:"
Click ";}i:2;i:1411;}i:70;a:3:{i:0;s:11:"strong_open";i:1;a:0:{}i:2;i:1418;}i:71;a:3:{i:0;s:5:"cdata";i:1;a:1:{i:0;s:6:"Finish";}i:2;i:1420;}i:72;a:3:{i:0;s:12:"strong_close";i:1;a:0:{}i:2;i:1426;}i:73;a:3:{i:0;s:5:"cdata";i:1;a:1:{i:0;s:24:" to finish installation.";}i:2;i:1428;}i:74;a:3:{i:0;s:9:"linebreak";i:1;a:0:{}i:2;i:1452;}i:75;a:3:{i:0;s:7:"p_close";i:1;a:0:{}i:2;i:1455;}i:76;a:3:{i:0;s:6:"p_open";i:1;a:0:{}i:2;i:1455;}i:77;a:3:{i:0;s:9:"linebreak";i:1;a:0:{}i:2;i:1457;}i:78;a:3:{i:0;s:5:"cdata";i:1;a:1:{i:0;s:48:"
How can we call from X-Lite to Verboice? Go to ";}i:2;i:1460;}i:79;a:3:{i:0;s:12:"internallink";i:1;a:2:{i:0;s:47:"en:vbmakecall:configure_x-lite_with_callcentric";i:1;s:61:"STEP 4 to learn more how to configure X-Lite with Callcentric";}i:2;i:1508;}i:80;a:3:{i:0;s:5:"cdata";i:1;a:1:{i:0;s:1:".";}i:2;i:1621;}i:81;a:3:{i:0;s:7:"p_close";i:1;a:0:{}i:2;i:1622;}i:82;a:3:{i:0;s:13:"section_close";i:1;a:0:{}i:2;i:1622;}i:83;a:3:{i:0;s:12:"document_end";i:1;a:0:{}i:2;i:1622;}}