a:46:{i:0;a:3:{i:0;s:14:"document_start";i:1;a:0:{}i:2;i:0;}i:1;a:3:{i:0;s:6:"header";i:1;a:3:{i:0;s:22:"What can I use it for?";i:1;i:1;i:2;i:1;}i:2;i:1;}i:2;a:3:{i:0;s:12:"section_open";i:1;a:1:{i:0;i:1;}i:2;i:1;}i:3;a:3:{i:0;s:6:"p_open";i:1;a:0:{}i:2;i:1;}i:4;a:3:{i:0;s:5:"cdata";i:1;a:1:{i:0;s:207:"Accurately tracking and allocating resources is critical to getting the most from every asset at your disposal. Here are a few ways that Resource Map can help you maximize your resource allocation and usage:";}i:2;i:38;}i:5;a:3:{i:0;s:9:"linebreak";i:1;a:0:{}i:2;i:245;}i:6;a:3:{i:0;s:7:"p_close";i:1;a:0:{}i:2;i:247;}i:7;a:3:{i:0;s:13:"section_close";i:1;a:0:{}i:2;i:249;}i:8;a:3:{i:0;s:6:"header";i:1;a:3:{i:0;s:39:"Tracking Medical Supplies and Personnel";i:1;i:4;i:2;i:249;}i:2;i:249;}i:9;a:3:{i:0;s:12:"section_open";i:1;a:1:{i:0;i:4;}i:2;i:249;}i:10;a:3:{i:0;s:6:"p_open";i:1;a:0:{}i:2;i:249;}i:11;a:3:{i:0;s:13:"internalmedia";i:1;a:7:{i:0;s:28:":en:introduction:medical.png";i:1;s:0:"";i:2;s:4:"left";i:3;N;i:4;N;i:5;s:5:"cache";i:6;s:7:"details";}i:2;i:297;}i:12;a:3:{i:0;s:5:"cdata";i:1;a:1:{i:0;s:496:"In an emergency medical situation, when lives may hang in the balance, the last thing you want to do is waste time finding supplies, personnel, and mobile or permanent treatment facilities. With Resource Map, you can quickly locate and manage critical resources on a real-time map using a computer or smartphone. On an emergency scene, when you might not have access to computers or smartphones, you and your team can view and update resource allocations with any phone capable of text messaging.";}i:2;i:331;}i:13;a:3:{i:0;s:9:"linebreak";i:1;a:0:{}i:2;i:827;}i:14;a:3:{i:0;s:5:"cdata";i:1;a:1:{i:0;s:1:"
";}i:2;i:829;}i:15;a:3:{i:0;s:9:"linebreak";i:1;a:0:{}i:2;i:830;}i:16;a:3:{i:0;s:7:"p_close";i:1;a:0:{}i:2;i:832;}i:17;a:3:{i:0;s:13:"section_close";i:1;a:0:{}i:2;i:834;}i:18;a:3:{i:0;s:6:"header";i:1;a:3:{i:0;s:40:"Monitoring Food Prices and Supply Levels";i:1;i:4;i:2;i:834;}i:2;i:834;}i:19;a:3:{i:0;s:12:"section_open";i:1;a:1:{i:0;i:4;}i:2;i:834;}i:20;a:3:{i:0;s:6:"p_open";i:1;a:0:{}i:2;i:834;}i:21;a:3:{i:0;s:13:"internalmedia";i:1;a:7:{i:0;s:31:":en:introduction:foot_price.png";i:1;s:0:"";i:2;s:4:"left";i:3;N;i:4;N;i:5;s:5:"cache";i:6;s:7:"details";}i:2;i:883;}i:22;a:3:{i:0;s:5:"cdata";i:1;a:1:{i:0;s:349:"Whether you're helping economically disadvantaged people find nutritious, fresh, and affordable produce, managing food banks, or simply trying to chart the most popular edibles in a given area, Resource Map makes it easy. And since Resource Map can be updated using almost any cellular phone, your resource data is always just as fresh as the food.
";}i:2;i:920;}i:23;a:3:{i:0;s:9:"linebreak";i:1;a:0:{}i:2;i:1269;}i:24;a:3:{i:0;s:5:"cdata";i:1;a:1:{i:0;s:1:"
";}i:2;i:1271;}i:25;a:3:{i:0;s:9:"linebreak";i:1;a:0:{}i:2;i:1272;}i:26;a:3:{i:0;s:7:"p_close";i:1;a:0:{}i:2;i:1274;}i:27;a:3:{i:0;s:13:"section_close";i:1;a:0:{}i:2;i:1276;}i:28;a:3:{i:0;s:6:"header";i:1;a:3:{i:0;s:36:"Managing Disease Prevention Supplies";i:1;i:4;i:2;i:1276;}i:2;i:1276;}i:29;a:3:{i:0;s:12:"section_open";i:1;a:1:{i:0;i:4;}i:2;i:1276;}i:30;a:3:{i:0;s:6:"p_open";i:1;a:0:{}i:2;i:1276;}i:31;a:3:{i:0;s:13:"internalmedia";i:1;a:7:{i:0;s:34:":en:introduction:medical_stock.png";i:1;s:0:"";i:2;s:4:"left";i:3;N;i:4;N;i:5;s:5:"cache";i:6;s:7:"details";}i:2;i:1321;}i:32;a:3:{i:0;s:5:"cdata";i:1;a:1:{i:0;s:451:"Medicine is at its best when it helps people avoid illness in the first place. Resource Map aids prevention efforts by giving teams new ways to manage key supply chain items, such as vaccines, vitamins, and other disease prevention tools. And by uploading statistics on various measures of health, you can even use Resource Map to monitor the effectiveness of your interventions. After all, a healthy community is one of your most important resources.";}i:2;i:1361;}i:33;a:3:{i:0;s:9:"linebreak";i:1;a:0:{}i:2;i:1812;}i:34;a:3:{i:0;s:5:"cdata";i:1;a:1:{i:0;s:1:"
";}i:2;i:1814;}i:35;a:3:{i:0;s:9:"linebreak";i:1;a:0:{}i:2;i:1815;}i:36;a:3:{i:0;s:7:"p_close";i:1;a:0:{}i:2;i:1817;}i:37;a:3:{i:0;s:13:"section_close";i:1;a:0:{}i:2;i:1819;}i:38;a:3:{i:0;s:6:"header";i:1;a:3:{i:0;s:28:"Testing Environmental Health";i:1;i:4;i:2;i:1819;}i:2;i:1819;}i:39;a:3:{i:0;s:12:"section_open";i:1;a:1:{i:0;i:4;}i:2;i:1819;}i:40;a:3:{i:0;s:6:"p_open";i:1;a:0:{}i:2;i:1819;}i:41;a:3:{i:0;s:13:"internalmedia";i:1;a:7:{i:0;s:32:":en:introduction:environment.png";i:1;s:0:"";i:2;s:4:"left";i:3;N;i:4;N;i:5;s:5:"cache";i:6;s:7:"details";}i:2;i:1856;}i:42;a:3:{i:0;s:5:"cdata";i:1;a:1:{i:0;s:452:"The health of any community is intimately related to the health of the environment that surrounds it. Resource Map helps to keep the air clean, the water pure, and sanitation effective by giving you instant, visual access to an array of environmental quality indicators. Field reports can be filed with any phone capable of text messaging, allowing your team the mobility it needs to test and report environmental conditions more frequently and easily.";}i:2;i:1894;}i:43;a:3:{i:0;s:7:"p_close";i:1;a:0:{}i:2;i:2346;}i:44;a:3:{i:0;s:13:"section_close";i:1;a:0:{}i:2;i:2346;}i:45;a:3:{i:0;s:12:"document_end";i:1;a:0:{}i:2;i:2346;}}